^D:\MATEI\UNIVERSITY\OOP\OOPEXTRACREDIT3\SOLUTION\SOLUTION\DICTIONARY.CPP
/c /ZI /JMC /nologo /W3 /WX- /diagnostics:column /sdl /Od /Oy- /D WIN32 /D _DEBUG /D _CONSOLE /D _UNICODE /D UNICODE /Gm- /EHsc /RTC1 /MDd /GS /fp:precise /permissive- /Zc:wchar_t /Zc:forScope /Zc:inline /Fo"DEBUG\\" /Fd"DEBUG\VC142.PDB" /Gd /TP /analyze- /FC D:\MATEI\UNIVERSITY\OOP\OOPEXTRACREDIT3\SOLUTION\SOLUTION\DICTIONARY.CPP
^D:\MATEI\UNIVERSITY\OOP\OOPEXTRACREDIT3\SOLUTION\SOLUTION\GRAPH.CPP
/c /ZI /JMC /nologo /W3 /WX- /diagnostics:column /sdl /Od /Oy- /D WIN32 /D _DEBUG /D _CONSOLE /D _UNICODE /D UNICODE /Gm- /EHsc /RTC1 /MDd /GS /fp:precise /permissive- /Zc:wchar_t /Zc:forScope /Zc:inline /Fo"DEBUG\\" /Fd"DEBUG\VC142.PDB" /Gd /TP /analyze- /FC D:\MATEI\UNIVERSITY\OOP\OOPEXTRACREDIT3\SOLUTION\SOLUTION\GRAPH.CPP
^D:\MATEI\UNIVERSITY\OOP\OOPEXTRACREDIT3\SOLUTION\SOLUTION\REPO.CPP
/c /ZI /JMC /nologo /W3 /WX- /diagnostics:column /sdl /Od /Oy- /D WIN32 /D _DEBUG /D _CONSOLE /D _UNICODE /D UNICODE /Gm- /EHsc /RTC1 /MDd /GS /fp:precise /permissive- /Zc:wchar_t /Zc:forScope /Zc:inline /Fo"DEBUG\\" /Fd"DEBUG\VC142.PDB" /Gd /TP /analyze- /FC D:\MATEI\UNIVERSITY\OOP\OOPEXTRACREDIT3\SOLUTION\SOLUTION\REPO.CPP
^D:\MATEI\UNIVERSITY\OOP\OOPEXTRACREDIT3\SOLUTION\SOLUTION\FUNCTIONALITY.CPP
/c /ZI /JMC /nologo /W3 /WX- /diagnostics:column /sdl /Od /Oy- /D WIN32 /D _DEBUG /D _CONSOLE /D _UNICODE /D UNICODE /Gm- /EHsc /RTC1 /MDd /GS /fp:precise /permissive- /Zc:wchar_t /Zc:forScope /Zc:inline /Fo"DEBUG\\" /Fd"DEBUG\VC142.PDB" /Gd /TP /analyze- /FC D:\MATEI\UNIVERSITY\OOP\OOPEXTRACREDIT3\SOLUTION\SOLUTION\FUNCTIONALITY.CPP
^D:\MATEI\UNIVERSITY\OOP\OOPEXTRACREDIT3\SOLUTION\SOLUTION\MAIN.CPP
/c /ZI /JMC /nologo /W3 /WX- /diagnostics:column /sdl /Od /Oy- /D WIN32 /D _DEBUG /D _CONSOLE /D _UNICODE /D UNICODE /Gm- /EHsc /RTC1 /MDd /GS /fp:precise /permissive- /Zc:wchar_t /Zc:forScope /Zc:inline /Fo"DEBUG\\" /Fd"DEBUG\VC142.PDB" /Gd /TP /analyze- /FC D:\MATEI\UNIVERSITY\OOP\OOPEXTRACREDIT3\SOLUTION\SOLUTION\MAIN.CPP
^D:\MATEI\UNIVERSITY\OOP\OOPEXTRACREDIT3\SOLUTION\SOLUTION\UI.CPP
/c /ZI /JMC /nologo /W3 /WX- /diagnostics:column /sdl /Od /Oy- /D WIN32 /D _DEBUG /D _CONSOLE /D _UNICODE /D UNICODE /Gm- /EHsc /RTC1 /MDd /GS /fp:precise /permissive- /Zc:wchar_t /Zc:forScope /Zc:inline /Fo"DEBUG\\" /Fd"DEBUG\VC142.PDB" /Gd /TP /analyze- /FC D:\MATEI\UNIVERSITY\OOP\OOPEXTRACREDIT3\SOLUTION\SOLUTION\UI.CPP
